0 0.1657142857142857 0.48857142857142855 0.2857142857142857 0.36
0 0.42 0.4657142857142857 0.26285714285714284 0.37714285714285717
0 0.6657142857142857 0.47714285714285715 0.24 0.42857142857142855
0 0.8914285714285715 0.42714285714285716 0.18857142857142858 0.3742857142857143
