0 0.545 0.43000000000000005 0.22333333333333336 0.19333333333333336
0 0.35833333333333334 0.8750000000000001 0.21666666666666667 0.21000000000000002
0 0.8350000000000001 0.8516666666666667 0.23 0.18333333333333335
