0 0.10529891304347826 0.07793153678077204 0.05842391304347826 0.0742898761835397
0 0.17595108695652173 0.20429715950473418 0.0638586956521739 0.08084486525855791
0 0.19089673913043478 0.32884195193008015 0.06657608695652174 0.08084486525855791
