0 0.94 0.2885714285714286 0.13714285714285715 0.12571428571428572
0 0.8871428571428571 0.8885714285714286 0.06571428571428571 0.08
0 0.4471428571428571 0.7357142857142858 0.054285714285714284 0.06571428571428571
0 0.07857142857142857 0.23 0.07142857142857142 0.07142857142857142
0 0.5757142857142857 0.9085714285714286 0.04857142857142857 0.05142857142857143
0 0.35714285714285715 0.8171428571428572 0.03428571428571429 0.06285714285714286
