0 0.327 0.2653333333333333 0.234 0.23199999999999998
0 0.501 0.076 0.246 0.13066666666666665
0 0.895 0.24666666666666665 0.21 0.20533333333333334
0 0.766 0.45199999999999996 0.252 0.216
0 0.637 0.7053333333333333 0.29 0.22666666666666666
0 0.464 0.8986666666666666 0.292 0.192
0 0.179 0.5133333333333333 0.28200000000000003 0.19999999999999998
