0 0.7014285714285714 0.4714285714285714 0.3914285714285714 0.3485714285714286
0 0.7585714285714286 0.9228571428571428 0.15714285714285714 0.13714285714285715
0 0.87 0.8328571428571429 0.12857142857142856 0.10571428571428572
