0 0.11538461538461539 0.5 0.0989010989010989 0.36
0 0.11355311355311355 0.852 0.09523809523809523 0.28800000000000003
0 0.29853479853479853 0.844 0.16483516483516483 0.304
0 0.5256410256410257 0.852 0.17216117216117216 0.304
0 0.7326007326007326 0.854 0.1684981684981685 0.292
0 0.9120879120879121 0.53 0.13186813186813187 0.74
0 0.7710622710622711 0.492 0.13553113553113552 0.34400000000000003
0 0.6007326007326007 0.49 0.12454212454212454 0.34800000000000003
0 0.43772893772893773 0.496 0.14285714285714285 0.34400000000000003
0 0.2783882783882784 0.496 0.1391941391941392 0.368
0 0.11538461538461539 0.14400000000000002 0.13553113553113552 0.28
0 0.2673992673992674 0.14400000000000002 0.13186813186813187 0.28
0 0.4230769230769231 0.15 0.1282051282051282 0.276
0 0.6007326007326007 0.134 0.12454212454212454 0.244
0 0.7783882783882784 0.132 0.13553113553113552 0.248
