0 0.4789473684210526 0.1675438596491228 0.4 0.12456140350877193
0 0.2736842105263158 0.5280701754385965 0.16140350877192983 0.3859649122807018
0 0.4342105263157895 0.4842105263157895 0.12105263157894737 0.4456140350877193
0 0.6078947368421053 0.5745614035087719 0.13157894736842105 0.3701754385964912
0 0.768421052631579 0.42894736842105263 0.1298245614035088 0.3701754385964912
0 0.5307017543859649 0.8175438596491228 0.44035087719298244 0.1368421052631579
