0 0.2741176470588235 0.5058823529411764 0.36470588235294116 0.6211764705882352
0 0.5047058823529411 0.4941176470588235 0.24705882352941175 0.6541176470588235
0 0.7623529411764706 0.5129411764705882 0.23058823529411762 0.6494117647058822
