0 0.3588235294117647 0.587037037037037 0.19411764705882353 0.5962962962962963
0 0.5205882352941177 0.42962962962962964 0.19411764705882353 0.6222222222222222
0 0.6882352941176471 0.6129629629629629 0.1764705882352941 0.625925925925926
