0 0.27941176470588236 0.5722222222222223 0.22941176470588234 0.8037037037037037
0 0.4823529411764706 0.3907407407407408 0.21176470588235294 0.7444444444444445
0 0.6529411764705882 0.55 0.16470588235294117 0.8555555555555556
