0 0.2227941176470588 0.4187631027253669 0.22205882352941175 0.7473794549266248
0 0.4742647058823529 0.41614255765199165 0.23676470588235293 0.740041928721174
0 0.7669117647058823 0.4224318658280923 0.2426470588235294 0.7379454926624738
