0 0.3367647058823529 0.13148148148148148 0.638235294117647 0.23333333333333334
0 0.6955882352941176 0.35185185185185186 0.41470588235294115 0.24444444444444446
0 0.39852941176470585 0.6018518518518519 0.638235294117647 0.3148148148148148
0 0.2485294117647059 0.8148148148148149 0.41470588235294115 0.1925925925925926
0 0.7205882352941176 0.812962962962963 0.4823529411764706 0.35185185185185186
