0 0.22630208333333332 0.35697492163009403 0.4046875 0.3910658307210031
0 0.46640624999999997 0.47296238244514105 0.41822916666666665 0.42241379310344823
0 0.71640625 0.5811128526645768 0.4265625 0.42241379310344823
