0 0.3380208333333333 0.638425925925926 0.27708333333333335 0.39722222222222225
0 0.4471354166666667 0.3689814814814815 0.25885416666666666 0.33796296296296297
0 0.5502604166666667 0.14907407407407408 0.23906249999999998 0.2574074074074074
