0 0.3158602150537635 0.29227053140096615 0.44354838709677424 0.45893719806763283
0 0.2634408602150538 0.5458937198067633 0.478494623655914 0.34782608695652173
0 0.6895161290322581 0.2632850241545894 0.217741935483871 0.40096618357487923
0 0.47580645161290325 0.27053140096618356 0.20967741935483872 0.4830917874396135
0 0.36693548387096775 0.7463768115942029 0.4005376344086022 0.4492753623188406
0 0.6626344086021506 0.7415458937198067 0.3521505376344086 0.45893719806763283
0 0.7701612903225807 0.717391304347826 0.4274193548387097 0.45893719806763283
0 0.8010752688172044 0.40096618357487923 0.3655913978494624 0.32850241545893716
