0 0.16484375 0.603125 0.3171875 0.8020833333333334
0 0.384375 0.55 0.253125 0.8541666666666666
0 0.6265625 0.5604166666666667 0.28750000000000003 0.8666666666666667
0 0.7703125000000001 0.6125 0.45937500000000003 0.7458333333333333
