0 0.29697986577181207 0.7562814070351759 0.412751677852349 0.3065326633165829
0 0.16442953020134227 0.5804020100502513 0.2953020134228188 0.2763819095477387
0 0.6174496644295302 0.8266331658291457 0.42953020134228187 0.2964824120603015
0 0.697986577181208 0.5628140703517588 0.3624161073825503 0.2814070351758794
0 0.511744966442953 0.4221105527638191 0.2919463087248322 0.23115577889447236
0 0.3657718120805369 0.30150753768844224 0.2953020134228188 0.21105527638190955
0 0.45302013422818793 0.10050251256281408 0.28187919463087246 0.1708542713567839
0 0.7768456375838926 0.12060301507537688 0.3389261744966443 0.20100502512562815
0 0.8439597315436241 0.29396984924623115 0.2986577181208054 0.23618090452261306
0 0.8808724832214765 0.8969849246231156 0.22483221476510068 0.18592964824120603
